Project 1
…
Next, I mutated my dataset and created a new variable called devFromMeanTotal. This showed the difference between a district’s mean SAT score and SAT score average of all school districts. A negative value meant that their score was below the average while a positive value meant that they were above the average.

mean(complete_data$Total)

## [1] 1030.923

complete_data %>% group_by(CntyName) %>% summarize(mean_SAT = mean(Total, 
    na.rm = T))

## # A tibble: 228 x 2
##    CntyName         mean_SAT
##    <fct>               <dbl>
##  1 Anderson County     1044 
##  2 Andrews County      1010 
##  3 Angelina County     1028.
##  4 Aransas County      1031 
##  5 Archer County       1109.
##  6 Armstrong County     917 
##  7 Atascosa County      974.
##  8 Austin County       1039 
##  9 Bailey County       1190 
## 10 Bandera County      1040 
## # … with 218 more rows
…
